<svg xmlns="http://www.w3.org/2000/svg" xmlns:xlink="http://www.w3.org/1999/xlink" width="506.661" height="554.704" viewBox="0 0 506.661 554.704">
  <defs>
    <filter id="Path_2173" x="177.015" y="0" width="226.751" height="303.558" filterUnits="userSpaceOnUse">
      <feOffset dx="15" dy="15" input="SourceAlpha"/>
      <feGaussianBlur stdDeviation="25" result="blur"/>
      <feFlood flood-opacity="0.059"/>
      <feComposite operator="in" in2="blur"/>
      <feComposite in="SourceGraphic"/>
    </filter>
    <filter id="Path_2174" x="100.264" y="0" width="226.751" height="303.558" filterUnits="userSpaceOnUse">
      <feOffset dx="15" dy="15" input="SourceAlpha"/>
      <feGaussianBlur stdDeviation="25" result="blur-2"/>
      <feFlood flood-opacity="0.161"/>
      <feComposite operator="in" in2="blur-2"/>
      <feComposite in="SourceGraphic"/>
    </filter>
    <filter id="Path_2175" x="0" y="197.26" width="506.661" height="291.151" filterUnits="userSpaceOnUse">
      <feOffset dx="15" dy="15" input="SourceAlpha"/>
      <feGaussianBlur stdDeviation="15" result="blur-3"/>
      <feFlood flood-opacity="0.6"/>
      <feComposite operator="in" in2="blur-3"/>
      <feComposite in="SourceGraphic"/>
    </filter>
    <clipPath id="clip-path">
      <path id="Path_25404" data-name="Path 25404" d="M176.76,161.213,250.625,91.55h268.95l73.846,69.663-66.886,73.865-76.149-75.692V292.7H317.109V159.4l-72.038,70.1Z" transform="translate(-14366.76 1932.45)" fill="#ed2526"/>
    </clipPath>
    <clipPath id="clip-path-2">
      <path id="Path_25435" data-name="Path 25435" d="M253.58,128.69l66.666,66.648L253.58,261.986Z" transform="translate(-14343.58 1194.32)" fill="#c2c2c2" stroke="#b7b7b7" stroke-width="1"/>
    </clipPath>
    <clipPath id="clip-path-3">
      <path id="Path_25439" data-name="Path 25439" d="M320.247,128.69,253.58,195.338l66.666,66.648Z" transform="translate(-253.58 -127.69)" fill="#c2c2c2" stroke="#b7b7b7" stroke-width="1"/>
    </clipPath>
    <clipPath id="clip-path-4">
      <path id="Path_25419" data-name="Path 25419" d="M320.246,225.48,253.58,158.832l51.22-51.213,14.714-.155h15.976l51.369,51.369Z" transform="translate(-11163.562 1401.414)" fill="#b7b7b7"/>
    </clipPath>
  </defs>
  <g id="Logo" transform="translate(3.662 79)">
    <g id="Group_741" data-name="Group 741" transform="translate(0 394.501)">
      <g id="Group_740" data-name="Group 740" transform="translate(0 61.203)">
        <rect id="Rectangle_112" data-name="Rectangle 112" width="60.93" height="1.06" transform="translate(408.406 14.104)" fill="#566771"/>
        <rect id="Rectangle_113" data-name="Rectangle 113" width="60.93" height="1.06" transform="translate(0 14.634)" fill="#566771"/>
        <text id="WE_LAUNCH_YOU_DISCOVER" data-name="WE LAUNCH YOU DISCOVER" transform="translate(102.101 16)" fill="#566771" font-size="17" font-family="Montserrat" font-weight="500"><tspan x="0" y="0" letter-spacing="-0.01em">W</tspan><tspan y="0">E L</tspan><tspan y="0" letter-spacing="-0.01em">A</tspan><tspan y="0">UNCH </tspan><tspan y="0" letter-spacing="-0.03em">Y</tspan><tspan y="0">OU DIS</tspan><tspan y="0" letter-spacing="-0.02em">CO</tspan><tspan y="0" letter-spacing="-0.01em">V</tspan><tspan y="0">ER</tspan></text>
      </g>
      <text id="TOMORROW_S_INDIA" data-name="TOMORROW`S INDIA" transform="translate(2.301 35)" fill="#576772" font-size="38" font-family="Neue Haas Grotesk Display Pro" font-weight="500"><tspan x="0" y="0" letter-spacing="-0.04em">T</tspan><tspan y="0">OMORR</tspan><tspan y="0" letter-spacing="-0.03em">O</tspan><tspan y="0">W`S INDIA</tspan></text>
      <path id="Path_2185" data-name="Path 2185" d="M420.783,222.038H417.75V220.96h7.381v1.078H422.08v8.9h-1.3Z" transform="translate(-27.732 -211.773)" fill="#566771"/>
      <path id="Path_2186" data-name="Path 2186" d="M437.778,515.329c0-1.388-.165-3.069-.146-4.312h0c-.347,1.169-.767,2.412-1.261,3.782l-1.827,4.86h-.968l-1.626-4.768c-.457-1.407-.859-2.686-1.151-3.873h0c0,1.242-.11,2.923-.2,4.421l-.274,4.275H429.1l.694-9.994h1.644l1.7,4.841a33.387,33.387,0,0,1,1,3.362h0c.256-1,.6-2.1,1.042-3.362l1.827-4.841h1.644l.621,9.994h-1.224Z" transform="translate(-30.842 -500.55)" fill="#566771"/>
    </g>
    <g id="Logo-2" data-name="Logo" transform="translate(-1.508 -19)">
      <g id="Group_564" data-name="Group 564" transform="translate(27.846 0)">
        <g transform="matrix(1, 0, 0, 1, -30, -60)" filter="url(#Path_2173)">
          <path id="Path_2173-2" data-name="Path 2173" d="M290.07,0l76.751,76.77L290.07,153.558Z" transform="translate(-53.05 60)" fill="rgba(112,112,112,0.04)"/>
        </g>
        <g transform="matrix(1, 0, 0, 1, -30, -60)" filter="url(#Path_2174)">
          <path id="Path_2174-2" data-name="Path 2174" d="M324.811,0,248.06,76.77l76.751,76.788Z" transform="translate(-87.8 60)" fill="rgba(112,112,112,0.4)" opacity="0.2"/>
        </g>
        <g transform="matrix(1, 0, 0, 1, -30, -60)" filter="url(#Path_2175)">
          <path id="Path_2175-2" data-name="Path 2175" d="M176.76,161.213,250.625,91.55h268.95l73.846,69.663-66.886,73.865-76.149-75.692V292.7H317.109V159.4l-72.038,70.1Z" transform="translate(-146.76 135.71)" fill="rgba(112,112,112,0.4)" opacity="0.1"/>
        </g>
        <path id="Path_2176" data-name="Path 2176" d="M320.246,225.48,253.58,158.832,320.246,92.22l66.612,66.612Z" transform="translate(-113.231 76.264)" fill="rgba(112,112,112,0.4)" opacity="0.1"/>
        <path id="Path_2177" data-name="Path 2177" d="M253.58,128.69l66.666,66.648L253.58,261.986Z" transform="translate(-113.231 106.424)" fill="rgba(112,112,112,0.4)" opacity="0.18"/>
        <path id="Path_2178" data-name="Path 2178" d="M356.682,128.69,290.07,195.338l66.612,66.648Z" transform="translate(-83.055 106.424)" fill="rgba(112,112,112,0.4)" opacity="0.18"/>
      </g>
    </g>
    <g id="Mask_Group_11" data-name="Mask Group 11" transform="translate(14216.338 -1876)" clip-path="url(#clip-path)">
      <path id="Path_25405" data-name="Path 25405" d="M-14058,1584h134v133.15h-134Z" transform="translate(8 508)" fill="#ed2526"/>
      <ellipse id="Ellipse_748" data-name="Ellipse 748" cx="67" cy="10" rx="67" ry="10" transform="translate(-14050 2082)" fill="#c52026"/>
      <path id="Path_25412" data-name="Path 25412" d="M290.07,0l76.751,76.77L290.07,153.558Z" transform="translate(-14273.071 1855.15)" fill="#c52026"/>
      <path id="Path_25413" data-name="Path 25413" d="M324.811,0,248.06,76.77l76.751,76.788Z" transform="translate(-14307.813 1855.15)" fill="#9f1d21"/>
    </g>
    <g id="Mask_Group_20" data-name="Mask Group 20" transform="translate(14256.668 -1107.01)" clip-path="url(#clip-path-2)">
      <path id="Path_25433" data-name="Path 25433" d="M255.309,102.765s50.1,14.718,71.436,16.954,87.3,4.967,87.3,4.967L253.58,281.367Z" transform="translate(-14367.756 1207.124)" fill="#c52026" opacity="0.5"/>
    </g>
    <g id="Mask_Group_22" data-name="Mask Group 22" transform="translate(233.333 215)" clip-path="url(#clip-path-3)">
      <path id="Path_25438" data-name="Path 25438" d="M408.059,101.971s-39.982,14.548-64.25,18.568-117.361,9.2-117.361,9.2L405.612,305.56Z" transform="translate(-287.072 -118.982)" fill="#c52026" opacity="0.5"/>
    </g>
    <g id="Mask_Group_14" data-name="Mask Group 14" transform="translate(11076.668 -1344)" clip-path="url(#clip-path-4)">
      <path id="Path_25418" data-name="Path 25418" d="M320.246,225.48,253.58,158.832s33.662,9.921,66.982,9.921,66.3-9.921,66.3-9.921Z" transform="translate(-11163.562 1401.414)" fill="#9f1d21"/>
    </g>
  </g>
</svg>
