<svg xmlns="http://www.w3.org/2000/svg" width="34.6" height="35.306" viewBox="0 0 34.6 35.306">
  <path id="google" d="M20.635,24.007V17.44H37.159a15.367,15.367,0,0,1,.441,3.619c0,10.08-6.761,17.247-16.947,17.247A17.653,17.653,0,0,1,20.653,3a16.9,16.9,0,0,1,11.81,4.607L27.449,12.48a9.7,9.7,0,0,0-6.8-2.613,10.805,10.805,0,0,0,0,21.607c6.761,0,9.25-4.678,9.709-7.45H20.635Z" transform="translate(-3 -3)" fill="#fff"/>
</svg>
