<svg id="male" xmlns="http://www.w3.org/2000/svg" width="208.566" height="208.623" viewBox="0 0 208.566 208.623">
  <g id="Group_6698" data-name="Group 6698" transform="translate(31 118.623)" opacity="0">
    <rect id="Rectangle_702" data-name="Rectangle 702" width="146" height="42" rx="21" fill="#9ddfd3"/>
    <text id="Male-2" data-name="Male" transform="translate(73 29)" fill="#fff" font-size="22" font-family="FiraSans-Regular, Fira Sans" letter-spacing="0.006em"><tspan x="-23" y="0">Male</tspan></text>
  </g>
  <g id="Group_6774" data-name="Group 6774">
    <g id="Group_6766" data-name="Group 6766">
      <g id="woman">
        <path id="Path_25318" data-name="Path 25318" d="M27.442,178.942A100.713,100.713,0,0,1,11.4,124.864C11.4,68.171,57.93,21.623,115.682,21.623S219.965,68.171,219.965,124.864c0,19.886-5.069,38.354-15.041,54.079Z" transform="translate(-11.399 -21.623)" fill="#ebf3ff"/>
        <path id="Path_25377" data-name="Path 25377" d="M16.044,157.319A100.713,100.713,0,0,1,0,103.241C0,46.548,46.531,0,104.283,0S208.566,46.548,208.566,103.241c0,19.886-5.069,38.354-15.041,54.079Z" transform="translate(208.566 208.623) rotate(180)" fill="#ebf3ff"/>
      </g>
      <path id="Path_25468" data-name="Path 25468" d="M22.821,72.526C15.9,78.331,8.479,88.894,12.586,101.25c7.33,22.054-11.4,51.852,10.138,73.99,12.673,13.028,26.762,12.589,37.086,9.872,1.911-8.178,3.736-17.5,3.736-26.278,0-8.427-.184-16.6-1.726-24.65C57.15,109.81,44.246,88.574,22.821,72.526Z" transform="translate(144.624 -51.187)" fill="rgba(115,195,249,0.32)"/>
      <path id="Path_25469" data-name="Path 25469" d="M419.778,73.252c6.923,5.8,15.608,15.642,11.5,28-7.33,22.054,11.4,51.852-10.138,73.99-12.673,13.028-26.576,12.915-36.9,10.2-1.911-8.178-4.117-17.169-4.117-25.95,0-12.657.9-24.891,4.864-36.625C391.332,103.119,403.87,85.951,419.778,73.252Z" transform="translate(-380.125 -51.187)" fill="rgba(115,195,249,0.32)"/>
    </g>
    <ellipse id="Ellipse_753" data-name="Ellipse 753" cx="46.5" cy="7.5" rx="46.5" ry="7.5" transform="translate(57.754 182)" fill="#e3d5d3"/>
    <g id="Layer_2" data-name="Layer 2" transform="translate(68 20)">
      <g id="Layer_1" data-name="Layer 1" transform="translate(0 0)">
        <path id="Path_25448" data-name="Path 25448" d="M73.376,145.327V174.77a7.709,7.709,0,0,1-7.7,7.7H65.49a7.713,7.713,0,0,1-7.3-5.238s-.2,1.89-.518,4.922c-1.123,10.7-3.7,35.673-4.052,42.243-2.178,7.25-3.629,11.6-16.682,11.966s-15.951-12.875-15.951-12.875l-4.744-41.334-.565-4.922a7.713,7.713,0,0,1-7.3,5.238H8.209A7.709,7.709,0,0,1,.5,174.77V146.414a35.539,35.539,0,0,1,29.005-34.934v9.4H27.63a6.827,6.827,0,0,0-6.827,6.827v1.328a6.831,6.831,0,0,0,6.827,6.831H29.5v1.044a8.025,8.025,0,0,0,16.046,0v-1.044h2.372a6.831,6.831,0,0,0,6.827-6.831v-1.328a6.827,6.827,0,0,0-6.827-6.827H45.55v-9.369a34.456,34.456,0,0,1,27.826,33.811Z" transform="translate(-0.5 -67.599)" fill="#d6daff" stroke="#4c56db" stroke-width="2"/>
        <path id="Path_25449" data-name="Path 25449" d="M85.822,126.816v1.328a6.831,6.831,0,0,1-6.827,6.831H76.623v1.044a8.025,8.025,0,0,1-16.046,0v-1.044h-1.89a6.831,6.831,0,0,1-6.827-6.831v-1.328a6.827,6.827,0,0,1,6.827-6.827h1.874v-9.4A35.5,35.5,0,0,1,67.088,110h2.9a34.431,34.431,0,0,1,6.618.636v9.369h2.372A6.827,6.827,0,0,1,85.822,126.816Z" transform="translate(-31.557 -66.704)" fill="#d6daff" stroke="#4c56db" stroke-width="2"/>
        <path id="Path_25450" data-name="Path 25450" d="M77.977,60.591V61.92a6.831,6.831,0,0,1-6.827,6.831H68.778v1.044a8.025,8.025,0,0,1-16.046,0V68.751h-1.89a6.831,6.831,0,0,1-6.827-6.831V60.591a6.827,6.827,0,0,1,6.827-6.827h1.874V43.585a22.406,22.406,0,1,1,16.046.427v9.752h2.372a6.827,6.827,0,0,1,6.843,6.827Z" transform="translate(-23.712 -0.479)" fill="#d6daff" stroke="#4c56db" stroke-width="2"/>
        <ellipse id="Ellipse_752" data-name="Ellipse 752" cx="13.259" cy="13.259" rx="13.259" ry="13.259" transform="translate(24.332 9.152)" fill="#f2f2f2" stroke="#4c56db" stroke-width="2"/>
        <line id="Line_66" data-name="Line 66" y1="24.838" transform="translate(15.188 84.712)" fill="#fff" stroke="#4c56db" stroke-linecap="round" stroke-width="2"/>
        <line id="Line_67" data-name="Line 67" y1="24.838" transform="translate(57.558 84.712)" fill="#fff" stroke="#4c56db" stroke-linecap="round" stroke-width="2"/>
      </g>
    </g>
  </g>
</svg>
