<svg xmlns="http://www.w3.org/2000/svg" width="93.607" height="88.669" viewBox="0 0 93.607 88.669">
  <path id="user" d="M48.8,54.8a21.4,21.4,0,1,1,21.4-21.4A21.4,21.4,0,0,1,48.8,54.8Zm0,11.113c17.047,0,32.342,3.053,42.8,16.39V92.669H6V82.306C16.462,68.966,31.757,65.916,48.8,65.916Z" transform="translate(-2 -8)" fill="none" stroke="#fff" stroke-width="8"/>
</svg>
